[
 {
   "terminal": 3,
   "gate": "A1",
   "pier": "A",
   "gate_type": "Common",
   "arrival_type": "PLB",
   "dependencies": "A1, A2, A3, A4, A5",
   "team_call_sign": "BETA 9"
 },
 {
   "terminal": 3,
   "gate": "A2",
   "pier": "A",
   "gate_type": "Common",
   "arrival_type": "PLB",
   "dependencies": "A1, A2, A3, A4, A5",
   "team_call_sign": "BETA 9"
 },
 {
   "terminal": 3,
   "gate": "A3",
   "pier": "A",
   "gate_type": "Common",
   "arrival_type": "PLB",
   "dependencies": "A1, A2, A3, A4, A5",
   "team_call_sign": "BETA 9"
 },
 {
   "terminal": 3,
   "gate": "A4",
   "pier": "A",
   "gate_type": "Common",
   "arrival_type": "PLB",
   "dependencies": "A1, A2, A3, A4, A5",
   "team_call_sign": "BETA 9"
 },
 {
   "terminal": 3,
   "gate": "A5",
   "pier": "A",
   "gate_type": "Common",
   "arrival_type": "PLB",
   "dependencies": "A1, A2, A3, A4, A5",
   "team_call_sign": "BETA 9"
 },
 {
   "terminal": 3,
   "gate": "A6",
   "pier": "A",
   "gate_type": "Common",
   "arrival_type": "Bus",
   "dependencies": "A6, A7, A8",
   "team_call_sign": "BETA 9"
 },
 {
   "terminal": 3,
   "gate": "A7",
   "pier": "A",
   "gate_type": "Common",
   "arrival_type": "Bus",
   "dependencies": "A6, A7, A8",
   "team_call_sign": "BETA 9"
 },
 {
   "terminal": 3,
   "gate": "A8",
   "pier": "A",
   "gate_type": "Common",
   "arrival_type": "Bus",
   "dependencies": "A6, A7, A8",
   "team_call_sign": "BETA 9"
 },
 {
   "terminal": 3,
   "gate": "A9",
   "pier": "A",
   "gate_type": "Pair",
   "arrival_type": "PLB",
   "dependencies": "A9, A10",
   "team_call_sign": "BETA 7"
 },
 {
   "terminal": 3,
   "gate": "A10",
   "pier": "A",
   "gate_type": "Pair",
   "arrival_type": "PLB",
   "dependencies": "A9, A10",
   "team_call_sign": "BETA 7"
 },
 {
   "terminal": 3,
   "gate": "A11",
   "pier": "A",
   "gate_type": "Pair",
   "arrival_type": "PLB",
   "dependencies": "A11, A12",
   "team_call_sign": "BETA 7"
 },
 {
   "terminal": 3,
   "gate": "A12",
   "pier": "A",
   "gate_type": "Pair",
   "arrival_type": "PLB",
   "dependencies": "A11, A12",
   "team_call_sign": "BETA 7"
 },
 {
   "terminal": 3,
   "gate": "A13",
   "pier": "A",
   "gate_type": "Pair",
   "arrival_type": "PLB",
   "dependencies": "A13, A14",
   "team_call_sign": "BETA 7"
 },
 {
   "terminal": 3,
   "gate": "A14",
   "pier": "A",
   "gate_type": "Pair",
   "arrival_type": "PLB",
   "dependencies": "A13, A14",
   "team_call_sign": "BETA 7"
 },
 {
   "terminal": 3,
   "gate": "A15",
   "pier": "A",
   "gate_type": "Single",
   "arrival_type": "PLB",
   "dependencies": "A15",
   "team_call_sign": "BETA 6"
 },
 {
   "terminal": 3,
   "gate": "A16",
   "pier": "A",
   "gate_type": "Common",
   "arrival_type": "PLB",
   "dependencies": "A16, A17, A18, A19, A20",
   "team_call_sign": "BETA 6"
 },
 {
   "terminal": 3,
   "gate": "A17",
   "pier": "A",
   "gate_type": "Common",
   "arrival_type": "PLB",
   "dependencies": "A16, A17, A18, A19, A20",
   "team_call_sign": "BETA 6"
 },
 {
   "terminal": 3,
   "gate": "A18",
   "pier": "A",
   "gate_type": "Common",
   "arrival_type": "PLB",
   "dependencies": "A16, A17, A18, A19, A20",
   "team_call_sign": "BETA 6"
 },
 {
   "terminal": 3,
   "gate": "A19",
   "pier": "A",
   "gate_type": "Common",
   "arrival_type": "PLB",
   "dependencies": "A16, A17, A18, A19, A20",
   "team_call_sign": "BETA 6"
 },
 {
   "terminal": 3,
   "gate": "A20",
   "pier": "A",
   "gate_type": "Common",
   "arrival_type": "PLB",
   "dependencies": "A16, A17, A18, A19, A20",
   "team_call_sign": "BETA 6"
 },
 {
   "terminal": 3,
   "gate": "A21",
   "pier": "A",
   "gate_type": "Single",
   "arrival_type": "PLB",
   "dependencies": "A21",
   "team_call_sign": "BETA 6"
 },
 {
   "terminal": 3,
   "gate": "B1",
   "pier": "B",
   "gate_type": "Common",
   "arrival_type": "PLB",
   "dependencies": "B1, B2, B3, B4",
   "team_call_sign": "BETA 8"
 },
 {
   "terminal": 3,
   "gate": "B2",
   "pier": "B",
   "gate_type": "Common",
   "arrival_type": "PLB",
   "dependencies": "B1, B2, B3, B4",
   "team_call_sign": "BETA 8"
 },
 {
   "terminal": 3,
   "gate": "B3",
   "pier": "B",
   "gate_type": "Common",
   "arrival_type": "PLB",
   "dependencies": "B1, B2, B3, B4",
   "team_call_sign": "BETA 8"
 },
 {
   "terminal": 3,
   "gate": "B4",
   "pier": "B",
   "gate_type": "Common",
   "arrival_type": "PLB",
   "dependencies": "B1, B2, B3, B4",
   "team_call_sign": "BETA 8"
 },
 {
   "terminal": 3,
   "gate": "B5",
   "pier": "B",
   "gate_type": "Pair",
   "arrival_type": "PLB",
   "dependencies": "B5, B6",
   "team_call_sign": "BETA 4"
 },
 {
   "terminal": 3,
   "gate": "B6",
   "pier": "B",
   "gate_type": "Pair",
   "arrival_type": "PLB",
   "dependencies": "B5, B6",
   "team_call_sign": "BETA 4"
 },
 {
   "terminal": 3,
   "gate": "B7",
   "pier": "B",
   "gate_type": "Single",
   "arrival_type": "PLB",
   "dependencies": "B7",
   "team_call_sign": "BETA 4"
 },
 {
   "terminal": 3,
   "gate": "B8",
   "pier": "B",
   "gate_type": "Single",
   "arrival_type": "PLB",
   "dependencies": "B8",
   "team_call_sign": "BETA 4"
 },
 {
   "terminal": 3,
   "gate": "B9",
   "pier": "B",
   "gate_type": "Single",
   "arrival_type": "PLB",
   "dependencies": "B9",
   "team_call_sign": "BETA 4"
 },
 {
   "terminal": 3,
   "gate": "B10",
   "pier": "B",
   "gate_type": "Single",
   "arrival_type": "PLB",
   "dependencies": "B10",
   "team_call_sign": "BETA 4"
 },
 {
   "terminal": 1,
   "gate": "C1",
   "pier": "C",
   "gate_type": "Single",
   "arrival_type": "PLB",
   "dependencies": "C1",
   "team_call_sign": "DELTA 5"
 },
 {
   "terminal": 1,
   "gate": "C11",
   "pier": "C",
   "gate_type": "Single",
   "arrival_type": "PLB",
   "dependencies": "C11",
   "team_call_sign": "DELTA 6"
 },
 {
   "terminal": 1,
   "gate": "C12",
   "pier": "C",
   "gate_type": "Single",
   "arrival_type": "Bus",
   "dependencies": "C12",
   "team_call_sign": "DELTA 6"
 },
 {
   "terminal": 1,
   "gate": "C13",
   "pier": "C",
   "gate_type": "Single",
   "arrival_type": "PLB",
   "dependencies": "C13",
   "team_call_sign": "DELTA 6"
 },
 {
   "terminal": 1,
   "gate": "C15",
   "pier": "C",
   "gate_type": "Single",
   "arrival_type": "PLB",
   "dependencies": "C15",
   "team_call_sign": "DELTA 6"
 },
 {
   "terminal": 1,
   "gate": "C16",
   "pier": "C",
   "gate_type": "Single",
   "arrival_type": "PLB",
   "dependencies": "C16",
   "team_call_sign": "DELTA 6"
 },
 {
   "terminal": 1,
   "gate": "C17",
   "pier": "C",
   "gate_type": "MARS",
   "arrival_type": "PLB",
   "dependencies": "C17, C17L, C17R",
   "team_call_sign": "DELTA 6"
 },
 {
   "terminal": 1,
   "gate": "C17L",
   "pier": "C",
   "gate_type": "MARS",
   "arrival_type": "PLB",
   "dependencies": "C17, C17L, C17R",
   "team_call_sign": "DELTA 6"
 },
 {
   "terminal": 1,
   "gate": "C17R",
   "pier": "C",
   "gate_type": "MARS",
   "arrival_type": "PLB",
   "dependencies": "C17, C17L, C17R",
   "team_call_sign": "DELTA 6"
 },
 {
   "terminal": 1,
   "gate": "C18",
   "pier": "C",
   "gate_type": "Single",
   "arrival_type": "PLB",
   "dependencies": "C18",
   "team_call_sign": "DELTA 6"
 },
 {
   "terminal": 1,
   "gate": "C19",
   "pier": "C",
   "gate_type": "Common",
   "arrival_type": "PLB",
   "dependencies": "C19, C25, C26",
   "team_call_sign": "DELTA 6"
 },
 {
   "terminal": 1,
   "gate": "C2",
   "pier": "C",
   "gate_type": "Pair",
   "arrival_type": "Bus",
   "dependencies": "C2, C3",
   "team_call_sign": "COMPASS 4"
 },
 {
   "terminal": 1,
   "gate": "C3",
   "pier": "C",
   "gate_type": "Pair",
   "arrival_type": "Bus",
   "dependencies": "C2, C3",
   "team_call_sign": "COMPASS 4"
 },
 {
   "terminal": 1,
   "gate": "C20",
   "pier": "C",
   "gate_type": "Single",
   "arrival_type": "PLB",
   "dependencies": "C20",
   "team_call_sign": "DELTA 6"
 },
 {
   "terminal": 1,
   "gate": "C22",
   "pier": "C",
   "gate_type": "Single",
   "arrival_type": "PLB",
   "dependencies": "C22",
   "team_call_sign": "DELTA 6"
 },
 {
   "terminal": 1,
   "gate": "C23",
   "pier": "C",
   "gate_type": "Single",
   "arrival_type": "PLB",
   "dependencies": "C23",
   "team_call_sign": "DELTA 6"
 },
 {
   "terminal": 1,
   "gate": "C24",
   "pier": "C",
   "gate_type": "Single",
   "arrival_type": "PLB",
   "dependencies": "C24",
   "team_call_sign": "DELTA 6"
 },
 {
   "terminal": 1,
   "gate": "C25",
   "pier": "C",
   "gate_type": "Common",
   "arrival_type": "PLB",
   "dependencies": "C19, C25, C26",
   "team_call_sign": "DELTA 6"
 },
 {
   "terminal": 1,
   "gate": "C26",
   "pier": "C",
   "gate_type": "Common",
   "arrival_type": "PLB",
   "dependencies": "C19, C25, C26",
   "team_call_sign": "DELTA 6"
 },
 {
   "terminal": 1,
   "gate": "D30",
   "pier": "D",
   "gate_type": "Single",
   "arrival_type": "PLB",
   "dependencies": "D30",
   "team_call_sign": "DELTA 4"
 },
 {
   "terminal": 1,
   "gate": "D32",
   "pier": "D",
   "gate_type": "Single",
   "arrival_type": "PLB",
   "dependencies": "D32",
   "team_call_sign": "DELTA 4"
 },
 {
   "terminal": 1,
   "gate": "D33",
   "pier": "D",
   "gate_type": "Single",
   "arrival_type": "Bus",
   "dependencies": "D33",
   "team_call_sign": "DELTA 4"
 },
 {
   "terminal": 1,
   "gate": "D34",
   "pier": "D",
   "gate_type": "Single",
   "arrival_type": "PLB",
   "dependencies": "D34",
   "team_call_sign": "DELTA 4"
 },
 {
   "terminal": 1,
   "gate": "D35",
   "pier": "D",
   "gate_type": "Single",
   "arrival_type": "PLB",
   "dependencies": "D35",
   "team_call_sign": "DELTA 4"
 },
 {
   "terminal": 1,
   "gate": "D36",
   "pier": "D",
   "gate_type": "Single",
   "arrival_type": "PLB",
   "dependencies": "D36",
   "team_call_sign": "DELTA 4"
 },
 {
   "terminal": 1,
   "gate": "D37",
   "pier": "D",
   "gate_type": "Single",
   "arrival_type": "PLB",
   "dependencies": "D37",
   "team_call_sign": "DELTA 4"
 },
 {
   "terminal": 1,
   "gate": "D38",
   "pier": "D",
   "gate_type": "Common",
   "arrival_type": "PLB",
   "dependencies": "D38, D48, D49",
   "team_call_sign": "DELTA 4"
 },
 {
   "terminal": 1,
   "gate": "D40",
   "pier": "D",
   "gate_type": "MARS",
   "arrival_type": "PLB",
   "dependencies": "D40, D40L, D40R",
   "team_call_sign": "DELTA 3"
 },
 {
   "terminal": 1,
   "gate": "D40L",
   "pier": "D",
   "gate_type": "MARS",
   "arrival_type": "PLB",
   "dependencies": "D40, D40L, D40R",
   "team_call_sign": "DELTA 3"
 },
 {
   "terminal": 1,
   "gate": "D40R",
   "pier": "D",
   "gate_type": "MARS",
   "arrival_type": "PLB",
   "dependencies": "D40, D40L, D40R",
   "team_call_sign": "DELTA 3"
 },
 {
   "terminal": 1,
   "gate": "D41",
   "pier": "D",
   "gate_type": "Single",
   "arrival_type": "PLB",
   "dependencies": "D41",
   "team_call_sign": "DELTA 3"
 },
 {
   "terminal": 1,
   "gate": "D42",
   "pier": "D",
   "gate_type": "MARS",
   "arrival_type": "PLB",
   "dependencies": "D42, D42L, D42R",
   "team_call_sign": "DELTA 4"
 },
 {
   "terminal": 1,
   "gate": "D42L",
   "pier": "D",
   "gate_type": "MARS",
   "arrival_type": "PLB",
   "dependencies": "D42, D42L, D42R",
   "team_call_sign": "DELTA 4"
 },
 {
   "terminal": 1,
   "gate": "D42R",
   "pier": "D",
   "gate_type": "MARS",
   "arrival_type": "PLB",
   "dependencies": "D42, D42L, D42R",
   "team_call_sign": "DELTA 4"
 },
 {
   "terminal": 1,
   "gate": "D43",
   "pier": "D",
   "gate_type": "Single",
   "arrival_type": "Bus",
   "dependencies": "D43",
   "team_call_sign": "DELTA 4"
 },
 {
   "terminal": 1,
   "gate": "D44",
   "pier": "D",
   "gate_type": "Single",
   "arrival_type": "PLB",
   "dependencies": "D44",
   "team_call_sign": "DELTA 4"
 },
 {
   "terminal": 1,
   "gate": "D46",
   "pier": "D",
   "gate_type": "Single",
   "arrival_type": "PLB",
   "dependencies": "D46",
   "team_call_sign": "DELTA 4"
 },
 {
   "terminal": 1,
   "gate": "D47",
   "pier": "D",
   "gate_type": "Single",
   "arrival_type": "PLB",
   "dependencies": "D47",
   "team_call_sign": "DELTA 4"
 },
 {
   "terminal": 1,
   "gate": "D48",
   "pier": "D",
   "gate_type": "Common",
   "arrival_type": "PLB",
   "dependencies": "D38, D48, D49",
   "team_call_sign": "DELTA 4"
 },
 {
   "terminal": 1,
   "gate": "D49",
   "pier": "D",
   "gate_type": "Common",
   "arrival_type": "PLB",
   "dependencies": "D38, D48, D49",
   "team_call_sign": "DELTA 4"
 },
 {
   "terminal": 2,
   "gate": "E1",
   "pier": "E",
   "gate_type": "Single",
   "arrival_type": "PLB",
   "dependencies": "E1",
   "team_call_sign": "ECHO 8"
 },
 {
   "terminal": 2,
   "gate": "E10",
   "pier": "E",
   "gate_type": "Single",
   "arrival_type": "PLB",
   "dependencies": "E10",
   "team_call_sign": "ECHO 8"
 },
 {
   "terminal": 2,
   "gate": "E11",
   "pier": "E",
   "gate_type": "Single",
   "arrival_type": "PLB",
   "dependencies": "E11",
   "team_call_sign": "ECHO 8"
 },
 {
   "terminal": 2,
   "gate": "E12",
   "pier": "E",
   "gate_type": "Common",
   "arrival_type": "PLB",
   "dependencies": "E7, E8, E12",
   "team_call_sign": "ECHO 8"
 },
 {
   "terminal": 2,
   "gate": "E2",
   "pier": "E",
   "gate_type": "Single",
   "arrival_type": "PLB",
   "dependencies": "E2",
   "team_call_sign": "ECHO 8"
 },
 {
   "terminal": 2,
   "gate": "E20",
   "pier": "E",
   "gate_type": "Single",
   "arrival_type": "PLB",
   "dependencies": "E20",
   "team_call_sign": "ECHO 4"
 },
 {
   "terminal": 2,
   "gate": "E22",
   "pier": "E",
   "gate_type": "Single",
   "arrival_type": "PLB",
   "dependencies": "E22",
   "team_call_sign": "ECHO 4"
 },
 {
   "terminal": 2,
   "gate": "E23",
   "pier": "E",
   "gate_type": "MARS",
   "arrival_type": "Bus",
   "dependencies": "E23, E23L, E23R",
   "team_call_sign": "ECHO 4"
 },
 {
   "terminal": 2,
   "gate": "E23L",
   "pier": "E",
   "gate_type": "MARS",
   "arrival_type": "Bus",
   "dependencies": "E23, E23L, E23R",
   "team_call_sign": "ECHO 4"
 },
 {
   "terminal": 2,
   "gate": "E23R",
   "pier": "E",
   "gate_type": "MARS",
   "arrival_type": "Bus",
   "dependencies": "E23, E23L, E23R",
   "team_call_sign": "ECHO 4"
 },
 {
   "terminal": 2,
   "gate": "E24",
   "pier": "E",
   "gate_type": "MARS",
   "arrival_type": "PLB",
   "dependencies": "E24, E24L, E24R",
   "team_call_sign": "ECHO 4"
 },
 {
   "terminal": 2,
   "gate": "E24L",
   "pier": "E",
   "gate_type": "MARS",
   "arrival_type": "PLB",
   "dependencies": "E24, E24L, E24R",
   "team_call_sign": "ECHO 4"
 },
 {
   "terminal": 2,
   "gate": "E24R",
   "pier": "E",
   "gate_type": "MARS",
   "arrival_type": "PLB",
   "dependencies": "E24, E24L, E24R",
   "team_call_sign": "ECHO 4"
 },
 {
   "terminal": 2,
   "gate": "E25",
   "pier": "E",
   "gate_type": "MARS",
   "arrival_type": "Bus",
   "dependencies": "E25, E25L, E25R",
   "team_call_sign": "ECHO 4"
 },
 {
   "terminal": 2,
   "gate": "E25L",
   "pier": "E",
   "gate_type": "MARS",
   "arrival_type": "Bus",
   "dependencies": "E25, E25L, E25R",
   "team_call_sign": "ECHO 4"
 },
 {
   "terminal": 2,
   "gate": "E25R",
   "pier": "E",
   "gate_type": "MARS",
   "arrival_type": "Bus",
   "dependencies": "E25, E25L, E25R",
   "team_call_sign": "ECHO 4"
 },
 {
   "terminal": 1,
   "gate": "E26",
   "pier": "E",
   "gate_type": "Single",
   "arrival_type": "PLB",
   "dependencies": "E26",
   "team_call_sign": "DELTA 3"
 },
 {
   "terminal": 1,
   "gate": "E27",
   "pier": "E",
   "gate_type": "MARS",
   "arrival_type": "PLB",
   "dependencies": "E27, E27L, E27R",
   "team_call_sign": "DELTA 3"
 },
 {
   "terminal": 1,
   "gate": "E27L",
   "pier": "E",
   "gate_type": "MARS",
   "arrival_type": "PLB",
   "dependencies": "E27, E27L, E27R",
   "team_call_sign": "DELTA 3"
 },
 {
   "terminal": 1,
   "gate": "E27R",
   "pier": "E",
   "gate_type": "MARS",
   "arrival_type": "PLB",
   "dependencies": "E27, E27L, E27R",
   "team_call_sign": "DELTA 3"
 },
 {
   "terminal": 1,
   "gate": "E28",
   "pier": "E",
   "gate_type": "Single",
   "arrival_type": "PLB",
   "dependencies": "E28",
   "team_call_sign": "DELTA 3"
 },
 {
   "terminal": 2,
   "gate": "E3",
   "pier": "E",
   "gate_type": "Single",
   "arrival_type": "PLB",
   "dependencies": "E3",
   "team_call_sign": "ECHO 8"
 },
 {
   "terminal": 2,
   "gate": "E4",
   "pier": "E",
   "gate_type": "Single",
   "arrival_type": "PLB",
   "dependencies": "E4",
   "team_call_sign": "ECHO 8"
 },
 {
   "terminal": 2,
   "gate": "E5",
   "pier": "E",
   "gate_type": "Single",
   "arrival_type": "PLB",
   "dependencies": "E5",
   "team_call_sign": "ECHO 8"
 },
 {
   "terminal": 2,
   "gate": "E6",
   "pier": "E",
   "gate_type": "Single",
   "arrival_type": "PLB",
   "dependencies": "E6",
   "team_call_sign": "ECHO 8"
 },
 {
   "terminal": 2,
   "gate": "E7",
   "pier": "E",
   "gate_type": "Common",
   "arrival_type": "PLB",
   "dependencies": "E7, E8, E12",
   "team_call_sign": "ECHO 8"
 },
 {
   "terminal": 2,
   "gate": "E8",
   "pier": "E",
   "gate_type": "Common",
   "arrival_type": "PLB",
   "dependencies": "E7, E8, E12",
   "team_call_sign": "ECHO 8"
 },
 {
   "terminal": 2,
   "gate": "F30",
   "pier": "F",
   "gate_type": "Single",
   "arrival_type": "PLB",
   "dependencies": "F30",
   "team_call_sign": "ECHO 9"
 },
 {
   "terminal": 2,
   "gate": "F31",
   "pier": "F",
   "gate_type": "Single",
   "arrival_type": "PLB",
   "dependencies": "F31",
   "team_call_sign": "ECHO 9"
 },
 {
   "terminal": 2,
   "gate": "F32",
   "pier": "F",
   "gate_type": "Single",
   "arrival_type": "PLB",
   "dependencies": "F32",
   "team_call_sign": "ECHO 9"
 },
 {
   "terminal": 2,
   "gate": "F33",
   "pier": "F",
   "gate_type": "Single",
   "arrival_type": "PLB",
   "dependencies": "F33",
   "team_call_sign": "ECHO 9"
 },
 {
   "terminal": 2,
   "gate": "F34",
   "pier": "F",
   "gate_type": "Single",
   "arrival_type": "PLB",
   "dependencies": "F34",
   "team_call_sign": "ECHO 9"
 },
 {
   "terminal": 2,
   "gate": "F35",
   "pier": "F",
   "gate_type": "MARS",
   "arrival_type": "PLB",
   "dependencies": "F35, F35L, F35R",
   "team_call_sign": "ECHO 9"
 },
 {
   "terminal": 2,
   "gate": "F35L",
   "pier": "F",
   "gate_type": "MARS",
   "arrival_type": "PLB",
   "dependencies": "F35, F35L, F35R",
   "team_call_sign": "ECHO 9"
 },
 {
   "terminal": 2,
   "gate": "F35R",
   "pier": "F",
   "gate_type": "MARS",
   "arrival_type": "PLB",
   "dependencies": "F35, F35L, F35R",
   "team_call_sign": "ECHO 9"
 },
 {
   "terminal": 2,
   "gate": "F36",
   "pier": "F",
   "gate_type": "Single",
   "arrival_type": "PLB",
   "dependencies": "F36",
   "team_call_sign": "ECHO 9"
 },
 {
   "terminal": 2,
   "gate": "F37",
   "pier": "F",
   "gate_type": "Single",
   "arrival_type": "PLB",
   "dependencies": "F37",
   "team_call_sign": "ECHO 9"
 },
 {
   "terminal": 2,
   "gate": "F40",
   "pier": "F",
   "gate_type": "Single",
   "arrival_type": "PLB",
   "dependencies": "F40",
   "team_call_sign": "ECHO 9"
 },
 {
   "terminal": 2,
   "gate": "F41",
   "pier": "F",
   "gate_type": "Single",
   "arrival_type": "PLB",
   "dependencies": "F41",
   "team_call_sign": "ECHO 9"
 },
 {
   "terminal": 2,
   "gate": "F42",
   "pier": "F",
   "gate_type": "Single",
   "arrival_type": "PLB",
   "dependencies": "F42",
   "team_call_sign": "ECHO 9"
 },
 {
   "terminal": 2,
   "gate": "F50",
   "pier": "F",
   "gate_type": "Single",
   "arrival_type": "PLB",
   "dependencies": "F50",
   "team_call_sign": "ECHO 7"
 },
 {
   "terminal": 2,
   "gate": "F51",
   "pier": "F",
   "gate_type": "MARS",
   "arrival_type": "Bus",
   "dependencies": "F51, F51L, F51R",
   "team_call_sign": "ECHO 7"
 },
 {
   "terminal": 2,
   "gate": "F51L",
   "pier": "F",
   "gate_type": "MARS",
   "arrival_type": "Bus",
   "dependencies": "F51, F51L, F51R",
   "team_call_sign": "ECHO 7"
 },
 {
   "terminal": 2,
   "gate": "F51R",
   "pier": "F",
   "gate_type": "MARS",
   "arrival_type": "Bus",
   "dependencies": "F51, F51L, F51R",
   "team_call_sign": "ECHO 7"
 },
 {
   "terminal": 2,
   "gate": "F52",
   "pier": "F",
   "gate_type": "MARS",
   "arrival_type": "PLB",
   "dependencies": "F52, F52L, F52R",
   "team_call_sign": "ECHO 7"
 },
 {
   "terminal": 2,
   "gate": "F52L",
   "pier": "F",
   "gate_type": "MARS",
   "arrival_type": "PLB",
   "dependencies": "F52, F52L, F52R",
   "team_call_sign": "ECHO 7"
 },
 {
   "terminal": 2,
   "gate": "F52R",
   "pier": "F",
   "gate_type": "MARS",
   "arrival_type": "PLB",
   "dependencies": "F52, F52L, F52R",
   "team_call_sign": "ECHO 7"
 },
 {
   "terminal": 2,
   "gate": "F53",
   "pier": "F",
   "gate_type": "MARS",
   "arrival_type": "Bus",
   "dependencies": "F53, F53L, F53R",
   "team_call_sign": "ECHO 7"
 },
 {
   "terminal": 2,
   "gate": "F53L",
   "pier": "F",
   "gate_type": "MARS",
   "arrival_type": "Bus",
   "dependencies": "F53, F53L, F53R",
   "team_call_sign": "ECHO 7"
 },
 {
   "terminal": 2,
   "gate": "F53R",
   "pier": "F",
   "gate_type": "MARS",
   "arrival_type": "Bus",
   "dependencies": "F53, F53L, F53R",
   "team_call_sign": "ECHO 7"
 },
 {
   "terminal": 2,
   "gate": "F54",
   "pier": "F",
   "gate_type": "Single",
   "arrival_type": "PLB",
   "dependencies": "F54",
   "team_call_sign": "ECHO 7"
 },
 {
   "terminal": 2,
   "gate": "F55",
   "pier": "F",
   "gate_type": "MARS",
   "arrival_type": "Bus",
   "dependencies": "F55, F55L, F55R",
   "team_call_sign": "ECHO 7"
 },
 {
   "terminal": 2,
   "gate": "F55L",
   "pier": "F",
   "gate_type": "MARS",
   "arrival_type": "Bus",
   "dependencies": "F55, F55L, F55R",
   "team_call_sign": "ECHO 7"
 },
 {
   "terminal": 2,
   "gate": "F55R",
   "pier": "F",
   "gate_type": "MARS",
   "arrival_type": "Bus",
   "dependencies": "F55, F55L, F55R",
   "team_call_sign": "ECHO 7"
 },
 {
   "terminal": 2,
   "gate": "F56",
   "pier": "F",
   "gate_type": "MARS",
   "arrival_type": "PLB",
   "dependencies": "F56, F56L, F56R",
   "team_call_sign": "ECHO 7"
 },
 {
   "terminal": 2,
   "gate": "F56L",
   "pier": "F",
   "gate_type": "MARS",
   "arrival_type": "PLB",
   "dependencies": "F56, F56L, F56R",
   "team_call_sign": "ECHO 7"
 },
 {
   "terminal": 2,
   "gate": "F56R",
   "pier": "F",
   "gate_type": "MARS",
   "arrival_type": "PLB",
   "dependencies": "F56, F56L, F56R",
   "team_call_sign": "ECHO 7"
 },
 {
   "terminal": 2,
   "gate": "F57",
   "pier": "F",
   "gate_type": "Single",
   "arrival_type": "Bus",
   "dependencies": "F57",
   "team_call_sign": "VICTOR 7"
 },
 {
   "terminal": 2,
   "gate": "F58",
   "pier": "F",
   "gate_type": "Single",
   "arrival_type": "PLB",
   "dependencies": "F58",
   "team_call_sign": "ECHO 7"
 },
 {
   "terminal": 2,
   "gate": "F59",
   "pier": "F",
   "gate_type": "Common",
   "arrival_type": "PLB",
   "dependencies": "F59, F59L, F59R, F60",
   "team_call_sign": "ECHO 7"
 },
 {
   "terminal": 2,
   "gate": "F59L",
   "pier": "F",
   "gate_type": "Common",
   "arrival_type": "PLB",
   "dependencies": "F59, F59L, F59R, F60",
   "team_call_sign": "ECHO 7"
 },
 {
   "terminal": 2,
   "gate": "F59R",
   "pier": "F",
   "gate_type": "Common",
   "arrival_type": "PLB",
   "dependencies": "F59, F59L, F59R, F60",
   "team_call_sign": "ECHO 7"
 },
 {
   "terminal": 2,
   "gate": "F60",
   "pier": "F",
   "gate_type": "Common",
   "arrival_type": "PLB",
   "dependencies": "F59, F59L, F59R, F60",
   "team_call_sign": "ECHO 7"
 },
 {
   "terminal": 4,
   "gate": "G1",
   "pier": "G",
   "gate_type": "Common",
   "arrival_type": "PLB",
   "dependencies": "G1",
   "team_call_sign": "ZETA 5"
 },
 {
   "terminal": 4,
   "gate": "G10",
   "pier": "G",
   "gate_type": "Common",
   "arrival_type": "PLB",
   "dependencies": "G10",
   "team_call_sign": "ZETA 5"
 },
 {
   "terminal": 4,
   "gate": "G11",
   "pier": "G",
   "gate_type": "Common",
   "arrival_type": "PLB",
   "dependencies": "G11",
   "team_call_sign": "ZETA 5"
 },
 {
   "terminal": 4,
   "gate": "G12",
   "pier": "G",
   "gate_type": "Common",
   "arrival_type": "PLB",
   "dependencies": "G12",
   "team_call_sign": "ZETA 5"
 },
 {
   "terminal": 4,
   "gate": "G13",
   "pier": "G",
   "gate_type": "Common",
   "arrival_type": "PLB",
   "dependencies": "G13",
   "team_call_sign": "ZETA 5"
 },
 {
   "terminal": 4,
   "gate": "G14",
   "pier": "G",
   "gate_type": "Common",
   "arrival_type": "PLB",
   "dependencies": "G14",
   "team_call_sign": "ZETA 5"
 },
 {
   "terminal": 4,
   "gate": "G15",
   "pier": "G",
   "gate_type": "Common",
   "arrival_type": "PLB",
   "dependencies": "G15",
   "team_call_sign": "ZETA 5"
 },
 {
   "terminal": 4,
   "gate": "G16",
   "pier": "G",
   "gate_type": "Common",
   "arrival_type": "PLB",
   "dependencies": "G16",
   "team_call_sign": "ZETA 5"
 },
 {
   "terminal": 4,
   "gate": "G17",
   "pier": "G",
   "gate_type": "Common",
   "arrival_type": "PLB",
   "dependencies": "G17",
   "team_call_sign": "ZETA 5"
 },
 {
   "terminal": 4,
   "gate": "G18",
   "pier": "G",
   "gate_type": "Common",
   "arrival_type": "PLB",
   "dependencies": "G18",
   "team_call_sign": "ZETA 5"
 },
 {
   "terminal": 4,
   "gate": "G19",
   "pier": "G",
   "gate_type": "Common",
   "arrival_type": "PLB",
   "dependencies": "G19",
   "team_call_sign": "ZETA 5"
 },
 {
   "terminal": 4,
   "gate": "G2",
   "pier": "G",
   "gate_type": "Common",
   "arrival_type": "PLB",
   "dependencies": "G2",
   "team_call_sign": "ZETA 5"
 },
 {
   "terminal": 4,
   "gate": "G20",
   "pier": "G",
   "gate_type": "Common",
   "arrival_type": "PLB",
   "dependencies": "G20",
   "team_call_sign": "ZETA 5"
 },
 {
   "terminal": 4,
   "gate": "G21",
   "pier": "G",
   "gate_type": "Common",
   "arrival_type": "PLB",
   "dependencies": "G21",
   "team_call_sign": "ZETA 5"
 },
 {
   "terminal": 4,
   "gate": "G4",
   "pier": "G",
   "gate_type": "Common",
   "arrival_type": "PLB",
   "dependencies": "G4",
   "team_call_sign": "ZETA 5"
 },
 {
   "terminal": 4,
   "gate": "G5",
   "pier": "G",
   "gate_type": "Common",
   "arrival_type": "PLB",
   "dependencies": "G5",
   "team_call_sign": "ZETA 5"
 },
 {
   "terminal": 4,
   "gate": "G6",
   "pier": "G",
   "gate_type": "Common",
   "arrival_type": "PLB",
   "dependencies": "G6",
   "team_call_sign": "ZETA 5"
 },
 {
   "terminal": 4,
   "gate": "G7",
   "pier": "G",
   "gate_type": "Common",
   "arrival_type": "PLB",
   "dependencies": "G7",
   "team_call_sign": "ZETA 5"
 },
 {
   "terminal": 4,
   "gate": "G8",
   "pier": "G",
   "gate_type": "Common",
   "arrival_type": "PLB",
   "dependencies": "G8",
   "team_call_sign": "ZETA 5"
 },
 {
   "terminal": 4,
   "gate": "G9",
   "pier": "G",
   "gate_type": "Common",
   "arrival_type": "PLB",
   "dependencies": "G9",
   "team_call_sign": "ZETA 5"
 },
 {
   "terminal": 4,
   "gate": "H1",
   "pier": "H",
   "gate_type": "Common",
   "arrival_type": "Bus",
   "dependencies": "H1",
   "team_call_sign": "ZETA 9"
 },
 {
   "terminal": 4,
   "gate": "H2",
   "pier": "H",
   "gate_type": "Common",
   "arrival_type": "Bus",
   "dependencies": "H2",
   "team_call_sign": "ZETA 9"
 }
]