terminal,gate,pier,gate_type,arrival_type,dependencies,team_call_sign
3,A1,A,Common,PLB,"A1, A2, A3, A4, A5",BETA 9
3,A2,A,Common,PLB,"A1, A2, A3, A4, A5",BETA 9
3,A3,A,Common,PLB,"A1, A2, A3, A4, A5",BETA 9
3,A4,A,Common,PLB,"A1, A2, A3, A4, A5",BETA 9
3,A5,A,Common,PLB,"A1, A2, A3, A4, A5",BETA 9
3,A6,A,Common,Bus,"A6, A7, A8",BETA 9
3,A7,A,Common,Bus,"A6, A7, A8",BETA 9
3,A8,A,Common,Bus,"A6, A7, A8",BETA 9
3,A9,A,Pair,PLB,"A9, A10",BETA 7
3,A10,A,Pair,PLB,"A9, A10",BETA 7
3,A11,A,Pair,PLB,"A11, A12",BETA 7
3,A12,A,Pair,PLB,"A11, A12",BETA 7
3,A13,A,Pair,PLB,"A13, A14",BETA 7
3,A14,A,Pair,PLB,"A13, A14",BETA 7
3,A15,A,Single,PLB,A15,BETA 6
3,A16,A,Common,PLB,"A16, A17, A18, A19, A20",BETA 6
3,A17,A,Common,PLB,"A16, A17, A18, A19, A20",BETA 6
3,A18,A,Common,PLB,"A16, A17, A18, A19, A20",BETA 6
3,A19,A,Common,PLB,"A16, A17, A18, A19, A20",BETA 6
3,A20,A,Common,PLB,"A16, A17, A18, A19, A20",BETA 6
3,A21,A,Single,PLB,A21,BETA 6
3,B1,B,Common,PLB,"B1, B2, B3, B4",BETA 8
3,B2,B,Common,PLB,"B1, B2, B3, B4",BETA 8
3,B3,B,Common,PLB,"B1, B2, B3, B4",BETA 8
3,B4,B,Common,PLB,"B1, B2, B3, B4",BETA 8
3,B5,B,Pair,PLB,"B5, B6",BETA 4
3,B6,B,Pair,PLB,"B5, B6",BETA 4
3,B7,B,Single,PLB,B7,BETA 4
3,B8,B,Single,PLB,B8,BETA 4
3,B9,B,Single,PLB,B9,BETA 4
3,B10,B,Single,PLB,B10,BETA 4
1,C1,C,Single,PLB,C1,DELTA 5
1,C11,C,Single,PLB,C11,DELTA 6
1,C12,C,Single,Bus,C12,DELTA 6
1,C13,C,Single,PLB,C13,DELTA 6
1,C15,C,Single,PLB,C15,DELTA 6
1,C16,C,Single,PLB,C16,DELTA 6
1,C17,C,MARS,PLB,"C17, C17L, C17R",DELTA 6
1,C17L,C,MARS,PLB,"C17, C17L, C17R",DELTA 6
1,C17R,C,MARS,PLB,"C17, C17L, C17R",DELTA 6
1,C18,C,Single,PLB,C18,DELTA 6
1,C19,C,Common,PLB,"C19, C25, C26",DELTA 6
1,C2,C,Pair,Bus,"C2, C3",COMPASS 4
1,C3,C,Pair,Bus,"C2, C3",COMPASS 4
1,C20,C,Single,PLB,C20,DELTA 6
1,C22,C,Single,PLB,C22,DELTA 6
1,C23,C,Single,PLB,C23,DELTA 6
1,C24,C,Single,PLB,C24,DELTA 6
1,C25,C,Common,PLB,"C19, C25, C26",DELTA 6
1,C26,C,Common,PLB,"C19, C25, C26",DELTA 6
1,D30,D,Single,PLB,D30,DELTA 4
1,D32,D,Single,PLB,D32,DELTA 4
1,D33,D,Single,Bus,D33,DELTA 4
1,D34,D,Single,PLB,D34,DELTA 4
1,D35,D,Single,PLB,D35,DELTA 4
1,D36,D,Single,PLB,D36,DELTA 4
1,D37,D,Single,PLB,D37,DELTA 4
1,D38,D,Common,PLB,"D38, D48, D49",DELTA 4
1,D40,D,MARS,PLB,"D40, D40L, D40R",DELTA 3
1,D40L,D,MARS,PLB,"D40, D40L, D40R",DELTA 3
1,D40R,D,MARS,PLB,"D40, D40L, D40R",DELTA 3
1,D41,D,Single,PLB,D41,DELTA 3
1,D42,D,MARS,PLB,"D42, D42L, D42R",DELTA 4
1,D42L,D,MARS,PLB,"D42, D42L, D42R",DELTA 4
1,D42R,D,MARS,PLB,"D42, D42L, D42R",DELTA 4
1,D43,D,Single,Bus,D43,DELTA 4
1,D44,D,Single,PLB,D44,DELTA 4
1,D46,D,Single,PLB,D46,DELTA 4
1,D47,D,Single,PLB,D47,DELTA 4
1,D48,D,Common,PLB,"D38, D48, D49",DELTA 4
1,D49,D,Common,PLB,"D38, D48, D49",DELTA 4
2,E1,E,Single,PLB,E1,ECHO 8
2,E10,E,Single,PLB,E10,ECHO 8
2,E11,E,Single,PLB,E11,ECHO 8
2,E12,E,Common,PLB,"E7, E8, E12",ECHO 8
2,E2,E,Single,PLB,E2,ECHO 8
2,E20,E,Single,PLB,E20,ECHO 4
2,E22,E,Single,PLB,E22,ECHO 4
2,E23,E,MARS,Bus,"E23, E23L, E23R",ECHO 4
2,E23L,E,MARS,Bus,"E23, E23L, E23R",ECHO 4
2,E23R,E,MARS,Bus,"E23, E23L, E23R",ECHO 4
2,E24,E,MARS,PLB,"E24, E24L, E24R",ECHO 4
2,E24L,E,MARS,PLB,"E24, E24L, E24R",ECHO 4
2,E24R,E,MARS,PLB,"E24, E24L, E24R",ECHO 4
2,E25,E,MARS,Bus,"E25, E25L, E25R",ECHO 4
2,E25L,E,MARS,Bus,"E25, E25L, E25R",ECHO 4
2,E25R,E,MARS,Bus,"E25, E25L, E25R",ECHO 4
1,E26,E,Single,PLB,E26,DELTA 3
1,E27,E,MARS,PLB,"E27, E27L, E27R",DELTA 3
1,E27L,E,MARS,PLB,"E27, E27L, E27R",DELTA 3
1,E27R,E,MARS,PLB,"E27, E27L, E27R",DELTA 3
1,E28,E,Single,PLB,E28,DELTA 3
2,E3,E,Single,PLB,E3,ECHO 8
2,E4,E,Single,PLB,E4,ECHO 8
2,E5,E,Single,PLB,E5,ECHO 8
2,E6,E,Single,PLB,E6,ECHO 8
2,E7,E,Common,PLB,"E7, E8, E12",ECHO 8
2,E8,E,Common,PLB,"E7, E8, E12",ECHO 8
2,F30,F,Single,PLB,F30,ECHO 9
2,F31,F,Single,PLB,F31,ECHO 9
2,F32,F,Single,PLB,F32,ECHO 9
2,F33,F,Single,PLB,F33,ECHO 9
2,F34,F,Single,PLB,F34,ECHO 9
2,F35,F,MARS,PLB,"F35, F35L, F35R",ECHO 9
2,F35L,F,MARS,PLB,"F35, F35L, F35R",ECHO 9
2,F35R,F,MARS,PLB,"F35, F35L, F35R",ECHO 9
2,F36,F,Single,PLB,F36,ECHO 9
2,F37,F,Single,PLB,F37,ECHO 9
2,F40,F,Single,PLB,F40,ECHO 9
2,F41,F,Single,PLB,F41,ECHO 9
2,F42,F,Single,PLB,F42,ECHO 9
2,F50,F,Single,PLB,F50,ECHO 7
2,F51,F,MARS,Bus,"F51, F51L, F51R",ECHO 7
2,F51L,F,MARS,Bus,"F51, F51L, F51R",ECHO 7
2,F51R,F,MARS,Bus,"F51, F51L, F51R",ECHO 7
2,F52,F,MARS,PLB,"F52, F52L, F52R",ECHO 7
2,F52L,F,MARS,PLB,"F52, F52L, F52R",ECHO 7
2,F52R,F,MARS,PLB,"F52, F52L, F52R",ECHO 7
2,F53,F,MARS,Bus,"F53, F53L, F53R",ECHO 7
2,F53L,F,MARS,Bus,"F53, F53L, F53R",ECHO 7
2,F53R,F,MARS,Bus,"F53, F53L, F53R",ECHO 7
2,F54,F,Single,PLB,F54,ECHO 7
2,F55,F,MARS,Bus,"F55, F55L, F55R",ECHO 7
2,F55L,F,MARS,Bus,"F55, F55L, F55R",ECHO 7
2,F55R,F,MARS,Bus,"F55, F55L, F55R",ECHO 7
2,F56,F,MARS,PLB,"F56, F56L, F56R",ECHO 7
2,F56L,F,MARS,PLB,"F56, F56L, F56R",ECHO 7
2,F56R,F,MARS,PLB,"F56, F56L, F56R",ECHO 7
2,F57,F,Single,Bus,F57,VICTOR 7
2,F58,F,Single,PLB,F58,ECHO 7
2,F59,F,Common,PLB,"F59, F59L, F59R, F60",ECHO 7
2,F59L,F,Common,PLB,"F59, F59L, F59R, F60",ECHO 7
2,F59R,F,Common,PLB,"F59, F59L, F59R, F60",ECHO 7
2,F60,F,Common,PLB,"F59, F59L, F59R, F60",ECHO 7
4,G1,G,Single,PLB,G1,ZETA 10
4,G10,G,Single,PLB,G10,ZETA 10
4,G11,G,Single,PLB,G11,ZETA 9
4,G12,G,Single,PLB,G12,ZETA 9
4,G13,G,Single,PLB,G13,ZETA 9
4,G14,G,Single,PLB,G14,ZETA 9
4,G15,G,Single,PLB,G15,ZETA 9
4,G16,G,Single,PLB,G16,ZETA 9
4,G17,G,Single,PLB,G17,ZETA 9
4,G18,G,Single,PLB,G18,ZETA 9
4,G19,G,Single,PLB,G19,ZETA 9
4,G2,G,Single,PLB,G2,ZETA 10
4,G20,G,Single,PLB,G20,ZETA 9
4,G21,G,Single,PLB,G21,ZETA 9
4,G4,G,Single,PLB,G4,ZETA 10
4,G5,G,Single,PLB,G5,ZETA 10
4,G6,G,Single,PLB,G6,ZETA 10
4,G7,G,Single,PLB,G7,ZETA 10
4,G8,G,Single,PLB,G8,ZETA 10
4,G9,G,Single,PLB,G9,ZETA 10
4,H1,H,Single,Bus Concourse,H1,ZETA 9
4,H2,H,Single,Bus Concourse,H2,ZETA 9
4,H3,H,Single,Bus Concourse,H3,ZETA 9
4,H4,H,Single,Bus Concourse,H4,ZETA 9
4,H5,H,Single,Bus Concourse,H5,ZETA 9
4,H6,H,Single,Bus Concourse,H6,ZETA 9
4,H7,H,Single,Bus Concourse,H7,ZETA 9
4,H8,H,Single,Bus Concourse,H8,ZETA 9
